<svg xmlns="http://www.w3.org/2000/svg" xmlns:xlink="http://www.w3.org/1999/xlink" width="41.132" height="45.432" viewBox="0 0 41.132 45.432">
  <defs>
    <filter id="solid_base" x="0" y="0" width="41.132" height="45.432" filterUnits="userSpaceOnUse">
      <feOffset dy="2" input="SourceAlpha"/>
      <feGaussianBlur stdDeviation="1" result="blur"/>
      <feFlood flood-color="#2c2828" flood-opacity="0.114"/>
      <feComposite operator="in" in2="blur"/>
      <feComposite in="SourceGraphic"/>
    </filter>
  </defs>
  <g id="facebook" transform="translate(3 1)">
    <g transform="matrix(1, 0, 0, 1, -3, -1)" filter="url(#solid_base)">
      <path id="solid_base-2" data-name="solid base" d="M134.685,106.3l-14.022,8.055a3.544,3.544,0,0,1-3.544-.008l-13.987-8.116a3.544,3.544,0,0,1-1.765-3.073l.035-16.171a3.544,3.544,0,0,1,1.779-3.065L117.2,75.865a3.544,3.544,0,0,1,3.544.008l13.987,8.116a3.544,3.544,0,0,1,1.765,3.073l-.035,16.172A3.544,3.544,0,0,1,134.685,106.3Z" transform="translate(-98.37 -74.39)" fill="#3c4c96"/>
    </g>
    <path id="Path_2476" data-name="Path 2476" d="M8.563-13.607v2.357h-1.4a1.312,1.312,0,0,0-1.036.321,1.479,1.479,0,0,0-.268.964v1.688H8.473L8.125-5.634H5.857V1.143H3.125V-5.634H.848V-8.277H3.125v-1.946A3.454,3.454,0,0,1,4.054-12.8a3.37,3.37,0,0,1,2.473-.915A14.77,14.77,0,0,1,8.563-13.607Z" transform="translate(13 26)" fill="#fff"/>
  </g>
</svg>
