<svg xmlns="http://www.w3.org/2000/svg" width="50.289" height="56.768" viewBox="0 0 50.289 56.768">
  <g id="Group_353" data-name="Group 353" transform="translate(-977.001 -745)">
    <path id="menu-icon" d="M56.482,15.642,35.669,3.611a4.291,4.291,0,0,0-4.331,0L10.465,15.642A4.4,4.4,0,0,0,8.3,19.371V43.432a4.249,4.249,0,0,0,2.165,3.729l20.813,12.03a4.5,4.5,0,0,0,2.165.6,3.927,3.927,0,0,0,2.165-.6l20.813-12.03a4.4,4.4,0,0,0,2.165-3.729V19.371A4.145,4.145,0,0,0,56.482,15.642Z" transform="translate(968.699 741.975)" fill="#ea5351"/>
    <g id="line" transform="translate(988.221 760.67)">
      <path id="Path_2064" data-name="Path 2064" d="M44.787,22.1H20.445a1.745,1.745,0,1,0,0,3.49h24.3a1.75,1.75,0,0,0,1.745-1.745A1.713,1.713,0,0,0,44.787,22.1Z" transform="translate(-18.7 -22.1)" fill="#fff"/>
      <path id="Path_2065" data-name="Path 2065" d="M20.445,50.49H39.334a1.745,1.745,0,1,0,0-3.49H20.445a1.745,1.745,0,1,0,0,3.49Z" transform="translate(-18.7 -36.139)" fill="#fff"/>
      <path id="Path_2066" data-name="Path 2066" d="M44.787,71.8H20.445a1.745,1.745,0,1,0,0,3.49h24.3a1.75,1.75,0,0,0,1.745-1.745A1.713,1.713,0,0,0,44.787,71.8Z" transform="translate(-18.7 -50.121)" fill="#fff"/>
    </g>
  </g>
</svg>
