<?xml version="1.0" encoding="utf-8"?>
<!-- Generator: Adobe Illustrator 23.0.3, SVG Export Plug-In . SVG Version: 6.00 Build 0)  -->
<svg version="1.1" id="Layer_1" xmlns="http://www.w3.org/2000/svg" xmlns:xlink="http://www.w3.org/1999/xlink" x="0px" y="0px"
	 viewBox="0 0 67.7 76.7" style="enable-background:new 0 0 67.7 76.7;" xml:space="preserve">
<style type="text/css">
	.st0{fill:#3A4D95;}
	.st1{fill:#E2DCB5;}
	.st2{fill:none;stroke:#FFFFFF;stroke-width:2.2297;stroke-linecap:round;stroke-linejoin:round;stroke-miterlimit:10;}
	.st3{fill:none;stroke:#FFFFFF;stroke-width:2.6029;stroke-linecap:round;stroke-linejoin:round;stroke-miterlimit:10;}
	.st4{fill:none;stroke:#FFFFFF;stroke-width:1.7652;stroke-linecap:round;stroke-linejoin:round;stroke-miterlimit:10;}
	.st5{fill:#FFFFFF;}
	.st6{fill:#3C4C98;}
	.st7{fill:#EA5552;}
	.st8{fill:#E9F2FA;}
	.st9{fill:none;stroke:#020202;stroke-width:2;stroke-linecap:round;stroke-linejoin:round;stroke-miterlimit:10;}
	.st10{fill:#EEF0F9;}
</style>
<g>
	<path class="st10" d="M67.7,55.3V21.4c0-1.6-0.9-3.1-2.2-3.9l-29.4-17c-1.4-0.8-3.1-0.8-4.5,0l-29.4,17C0.9,18.3,0,19.8,0,21.4
		v33.9c0,1.6,0.9,3.1,2.2,3.9l29.4,17c1.4,0.8,3.1,0.8,4.5,0l29.4-17C66.8,58.4,67.7,56.9,67.7,55.3z"/>
	<g>
		<path class="st6" d="M49.6,31.5L49.6,31.5L49.6,31.5L36.4,18.1l0,0V18H22.6c-2.5,0-4.6,2-4.6,4.6v31.6c0,2.5,2,4.6,4.6,4.6h22.5
			c2.5,0,4.6-2,4.6-4.6V31.5L49.6,31.5L49.6,31.5z M36.4,22.9l8.4,8.5h-8.4V22.9z M46.2,54.2c0,0.6-0.5,1.1-1.1,1.1H22.6
			c-0.6,0-1.1-0.5-1.1-1.1V22.6c0-0.6,0.5-1.1,1.1-1.1H33v13.4h13.3V54.2z"/>
		<g>
			<g>
				<path class="st7" d="M40.6,50.8H27.4c-0.9,0-1.7-0.8-1.7-1.7v0c0-0.9,0.8-1.7,1.7-1.7h13.2c0.9,0,1.7,0.8,1.7,1.7v0
					C42.3,50,41.5,50.8,40.6,50.8z"/>
			</g>
		</g>
		<g>
			<g>
				<path class="st7" d="M40.6,43.6H27.4c-0.9,0-1.7-0.8-1.7-1.7v0c0-0.9,0.8-1.7,1.7-1.7h13.2c0.9,0,1.7,0.8,1.7,1.7v0
					C42.3,42.9,41.5,43.6,40.6,43.6z"/>
			</g>
		</g>
	</g>
</g>
</svg>
