<?xml version="1.0" encoding="utf-8"?>
<!-- Generator: Adobe Illustrator 23.0.3, SVG Export Plug-In . SVG Version: 6.00 Build 0)  -->
<svg version="1.1" id="Layer_1" xmlns="http://www.w3.org/2000/svg" xmlns:xlink="http://www.w3.org/1999/xlink" x="0px" y="0px"
	 viewBox="0 0 150 150" style="enable-background:new 0 0 150 150;" xml:space="preserve">
<style type="text/css">
	.st0{fill:#3A4D94;}
	.st1{fill-rule:evenodd;clip-rule:evenodd;fill:#E1DBB4;}
	.st2{fill:#FFFFFF;}
	.st3{fill:#E1DBB4;}
	.st4{fill:#F5F5F5;}
</style>
<g>
	<g>
		<rect x="4" y="3.4" class="st3" width="125.5" height="122.9"/>
	</g>
	<g>
		<path class="st0" d="M129.5,129.8H4c-1.9,0-3.4-1.5-3.4-3.4V3.4C0.6,1.5,2.1,0,4,0h125.5c1.9,0,3.4,1.5,3.4,3.4v122.9
			C132.9,128.3,131.3,129.8,129.5,129.8z M7.4,122.9H126V6.9H7.4V122.9z"/>
	</g>
</g>
<g>
	<g>
		<g>
			<path class="st0" d="M95.7,105.7h-58c-6.8,0-12.3-5.5-12.3-12.3v-58c0-6.8,5.5-12.3,12.3-12.3h58c6.8,0,12.3,5.5,12.3,12.3v58
				C108,100.2,102.5,105.7,95.7,105.7z M37.7,30.1c-3,0-5.4,2.4-5.4,5.4v58c0,3,2.4,5.4,5.4,5.4h58c3,0,5.4-2.4,5.4-5.4v-58
				c0-3-2.4-5.4-5.4-5.4H37.7z"/>
		</g>
	</g>
	<g>
		<g>
			<g>
				<path class="st0" d="M66.7,68.3c-1.9,0-3.4-1.5-3.4-3.4V42.6c0-1.9,1.5-3.4,3.4-3.4c1.9,0,3.4,1.5,3.4,3.4v22.3
					C70.2,66.8,68.6,68.3,66.7,68.3z"/>
			</g>
		</g>
		<g>
			<g>
				<path class="st0" d="M66.7,71.9c-0.9,0-1.8-0.4-2.4-1L53.8,60.5c-1.3-1.3-1.3-3.5,0-4.9c1.3-1.3,3.5-1.3,4.9,0l8,8l8-8
					c1.3-1.3,3.5-1.3,4.9,0c1.3,1.3,1.3,3.5,0,4.9L69.1,70.9C68.5,71.5,67.6,71.9,66.7,71.9z"/>
			</g>
		</g>
	</g>
	<g>
		<g>
			<circle class="st0" cx="66.7" cy="81.7" r="5.3"/>
		</g>
	</g>
</g>
<g>
	<g>
		<g>
			<g>
				<circle class="st0" cx="110.2" cy="110.8" r="39.2"/>
			</g>
		</g>
	</g>
</g>
<g>
	<g>
		<path class="st2" d="M119.1,104.5c-0.6-0.1-0.8-0.4-0.8-1c0.1-1.2,0.1-2.4,0-3.5c0-0.7,0.2-1.2,0.8-1.6c2-1.3,2.3-4.1,0.7-6
			c-1.5-1.8-4.2-2-5.9-0.5c-1.8,1.6-2,4.5-0.2,6c1.2,0.9,1.3,1.9,1.2,3.2c0,0.8,0,1.6,0,2.4c0,0.6-0.1,0.9-0.8,1
			c-0.8,0.1-1.6,0.4-2.3,0.7c-0.5,0.2-0.8,0.1-1.2-0.2c-4.5-3.5-9.1-6.9-13.7-10.4c-0.4-0.3-0.5-0.6-0.5-1.1
			c0.4-2.6-1.7-5.1-4.4-5.2c-1.9-0.1-3.6,1-4.4,2.7c-0.8,1.7-0.5,3.7,0.8,5.1c1.3,1.4,3.2,1.8,5,1.2c0.4-0.1,0.7-0.4,1.2,0
			c4.6,3.3,9.1,6.6,13.7,10c-0.1,0.1-0.2,0.3-0.3,0.3c-4.2,4-4.1,10.4-1.2,14.4c0.3,0.5,0.1,0.7-0.2,1c-1.1,1.1-2.2,2.1-3.2,3.2
			c-0.4,0.5-0.8,0.6-1.5,0.5c-2.1-0.2-3.8,1.2-4,3.2c-0.2,2,1.4,3.8,3.4,3.9c2,0.1,3.7-1.6,3.7-3.7c0-0.5-0.2-1,0.3-1.5
			c1.2-1.1,2.4-2.4,3.6-3.6c0.4-0.4,0.7-0.4,1.1-0.1c2.5,1.5,5.3,2,8.2,1.6c7.9-1.1,12.2-10.5,7.7-17.1
			C124.6,106.8,122.2,105.1,119.1,104.5z M116.7,121.7c-3.4,0-6.1-2.9-6.1-6.2c0-3.4,2.8-6.1,6.1-6.1c3.5,0,6.1,2.8,6,6.4
			C122.7,118.8,119.7,121.8,116.7,121.7z"/>
	</g>
</g>
</svg>
