<?xml version="1.0" encoding="utf-8"?>
<!-- Generator: Adobe Illustrator 23.0.3, SVG Export Plug-In . SVG Version: 6.00 Build 0)  -->
<svg version="1.1" id="Layer_1" xmlns="http://www.w3.org/2000/svg" xmlns:xlink="http://www.w3.org/1999/xlink" x="0px" y="0px"
	 viewBox="0 0 150 150" style="enable-background:new 0 0 150 150;" xml:space="preserve">
<style type="text/css">
	.st0{fill:#3A4D94;}
	.st1{fill-rule:evenodd;clip-rule:evenodd;fill:#E1DBB4;}
	.st2{fill:#FFFFFF;}
	.st3{fill:#E1DBB4;}
	.st4{fill:#F5F5F5;}
</style>
<g>
	<g>
		<g>
			<path class="st0" d="M64.9,131.3C29.1,131.3,0,102.2,0,66.4C0,30.6,29.1,1.5,64.9,1.5s64.9,29.1,64.9,64.9
				C129.8,102.2,100.7,131.3,64.9,131.3z"/>
		</g>
		<g>
			<path class="st3" d="M64.9,8.6C33,8.6,7.1,34.5,7.1,66.4c0,31.9,25.9,57.8,57.8,57.8c31.9,0,57.8-25.9,57.8-57.8
				C122.7,34.5,96.8,8.6,64.9,8.6z"/>
		</g>
	</g>
	<g>
		<g>
			<g>
				<circle class="st0" cx="113.5" cy="112" r="36.5"/>
			</g>
		</g>
	</g>
	<g>
		<g>
			<g>
				<g>
					<path class="st2" d="M126.5,104.3h-26.1c-1.7,0-3.2-1.4-3.2-3.2v0c0-1.7,1.4-3.2,3.2-3.2h26.1c1.7,0,3.2,1.4,3.2,3.2v0
						C129.7,102.8,128.3,104.3,126.5,104.3z"/>
				</g>
			</g>
		</g>
		<g>
			<g>
				<g>
					<path class="st2" d="M126.5,115.2h-26.1c-1.7,0-3.2-1.4-3.2-3.2v0c0-1.7,1.4-3.2,3.2-3.2h26.1c1.7,0,3.2,1.4,3.2,3.2v0
						C129.7,113.7,128.3,115.2,126.5,115.2z"/>
				</g>
			</g>
		</g>
		<g>
			<g>
				<g>
					<path class="st2" d="M126.5,126.1h-26.1c-1.7,0-3.2-1.4-3.2-3.2v0c0-1.7,1.4-3.2,3.2-3.2h26.1c1.7,0,3.2,1.4,3.2,3.2v0
						C129.7,124.6,128.3,126.1,126.5,126.1z"/>
				</g>
			</g>
		</g>
	</g>
	<g>
		<g>
			<g>
				<path class="st0" d="M35.9,80c-7.2-16.9,0.7-36.4,17.6-43.6c7.9-3.3,16.6-3.5,24.6-0.5l-2.5,6.7c-6.3-2.3-13.1-2.2-19.3,0.4
					c-13.2,5.6-19.4,20.9-13.8,34.2L35.9,80z"/>
			</g>
		</g>
		<g>
			<g>
				<path class="st0" d="M66.5,100.2c-5.4,0-10.7-1.3-15.6-3.9l3.4-6.4c7,3.7,15.2,4.1,22.4,1c6.4-2.7,11.4-7.8,14-14.2
					c2.6-6.5,2.5-13.5-0.2-19.9l6.6-2.8c3.5,8.2,3.5,17.2,0.2,25.4c-3.3,8.2-9.7,14.7-17.8,18.1C75.3,99.4,70.9,100.2,66.5,100.2z"
					/>
			</g>
		</g>
		<g>
			<g>
				<polygon class="st0" points="70,50.7 65.3,45.3 73.4,38.3 68.5,28.4 74.9,25.2 82.3,40.1 				"/>
			</g>
		</g>
		<g>
			<g>
				<polygon class="st0" points="54.7,108.6 46.4,91.1 60.5,82 64.4,88.1 55.6,93.7 61.2,105.5 				"/>
			</g>
		</g>
	</g>
</g>
</svg>
