<?xml version="1.0" encoding="utf-8"?>
<!-- Generator: Adobe Illustrator 23.0.3, SVG Export Plug-In . SVG Version: 6.00 Build 0)  -->
<svg version="1.1" id="Layer_1" xmlns="http://www.w3.org/2000/svg" xmlns:xlink="http://www.w3.org/1999/xlink" x="0px" y="0px"
	 viewBox="0 0 150 150" style="enable-background:new 0 0 150 150;" xml:space="preserve">
<style type="text/css">
	.st0{fill:#3A4D94;}
	.st1{fill-rule:evenodd;clip-rule:evenodd;fill:#E1DBB4;}
	.st2{fill:#FFFFFF;}
	.st3{fill:#E1DBB4;}
	.st4{fill:#F5F5F5;}
</style>
<g>
	<g>
		<g>
			<path class="st0" d="M66.2,1C29.8,1,0.2,30.6,0.2,66.9s29.6,65.9,65.9,65.9c36.3,0,65.9-29.6,65.9-65.9S102.5,1,66.2,1z
				 M123,66.9c0,31.3-25.5,56.8-56.8,56.8S9.3,98.2,9.3,66.9s25.5-56.8,56.8-56.8S123,35.6,123,66.9z"/>
		</g>
		<g>
			<path class="st0" d="M81.5,70.2c5-4.4,8-10.8,8-17.5c0-12.8-10.4-23.3-23.3-23.3c-12.8,0-23.3,10.4-23.3,23.3
				c0,6.7,2.9,13.1,8,17.5C40,75.9,33.1,87.2,33.1,99.5c0,2.8,2.3,5,5,5h56c2.8,0,5-2.3,5-5C99.2,87.2,92.3,75.9,81.5,70.2z"/>
		</g>
		<g>
			<g>
				<g>
					<g>
						<path class="st3" d="M66.2,37.6c8.4,0,15.2,6.8,15.2,15.2c0,8.4-6.8,15.2-15.2,15.2S51,61.1,51,52.7
							C51,44.4,57.8,37.6,66.2,37.6z"/>
					</g>
				</g>
			</g>
		</g>
		<g>
			<g>
				<g>
					<g>
						<path class="st3" d="M41.9,96c1.7-11.8,11.9-20.9,24.2-20.9S88.6,84.2,90.4,96H41.9z"/>
					</g>
				</g>
			</g>
		</g>
	</g>
	<g>
		<g>
			<g>
				<g>
					<circle class="st0" cx="113.2" cy="112.5" r="36.5"/>
				</g>
			</g>
		</g>
	</g>
	<g>
		<g>
			<g>
				<g>
					<g>
						<path class="st2" d="M126.3,104.8h-26.1c-1.7,0-3.2-1.4-3.2-3.2v0c0-1.7,1.4-3.2,3.2-3.2h26.1c1.7,0,3.2,1.4,3.2,3.2v0
							C129.5,103.3,128,104.8,126.3,104.8z"/>
					</g>
				</g>
			</g>
		</g>
		<g>
			<g>
				<g>
					<g>
						<path class="st2" d="M126.3,115.7h-26.1c-1.7,0-3.2-1.4-3.2-3.2v0c0-1.7,1.4-3.2,3.2-3.2h26.1c1.7,0,3.2,1.4,3.2,3.2v0
							C129.5,114.2,128,115.7,126.3,115.7z"/>
					</g>
				</g>
			</g>
		</g>
		<g>
			<g>
				<g>
					<g>
						<path class="st2" d="M126.3,126.6h-26.1c-1.7,0-3.2-1.4-3.2-3.2v0c0-1.7,1.4-3.2,3.2-3.2h26.1c1.7,0,3.2,1.4,3.2,3.2v0
							C129.5,125.1,128,126.6,126.3,126.6z"/>
					</g>
				</g>
			</g>
		</g>
	</g>
</g>
</svg>
