<?xml version="1.0" encoding="utf-8"?>
<!-- Generator: Adobe Illustrator 23.0.3, SVG Export Plug-In . SVG Version: 6.00 Build 0)  -->
<svg version="1.1" id="Layer_1" xmlns="http://www.w3.org/2000/svg" xmlns:xlink="http://www.w3.org/1999/xlink" x="0px" y="0px"
	 viewBox="0 0 67.7 76.7" style="enable-background:new 0 0 67.7 76.7;" xml:space="preserve">
<style type="text/css">
	.st0{fill:#3A4D95;}
	.st1{fill:#E2DCB5;}
	.st2{fill:none;stroke:#FFFFFF;stroke-width:2.2297;stroke-linecap:round;stroke-linejoin:round;stroke-miterlimit:10;}
	.st3{fill:none;stroke:#FFFFFF;stroke-width:2.6029;stroke-linecap:round;stroke-linejoin:round;stroke-miterlimit:10;}
	.st4{fill:none;stroke:#FFFFFF;stroke-width:1.7652;stroke-linecap:round;stroke-linejoin:round;stroke-miterlimit:10;}
	.st5{fill:#FFFFFF;}
	.st6{fill:#3C4C98;}
	.st7{fill:#EA5552;}
	.st8{fill:#E9F2FA;}
	.st9{fill:none;stroke:#020202;stroke-width:2;stroke-linecap:round;stroke-linejoin:round;stroke-miterlimit:10;}
	.st10{fill:#EEF0F9;}
</style>
<g>
	<path class="st10" d="M67.7,55.3V21.4c0-1.6-0.9-3.1-2.2-3.9l-29.4-17c-1.4-0.8-3.1-0.8-4.5,0l-29.4,17C0.9,18.3,0,19.8,0,21.4
		v33.9c0,1.6,0.9,3.1,2.2,3.9l29.4,17c1.4,0.8,3.1,0.8,4.5,0l29.4-17C66.8,58.4,67.7,56.9,67.7,55.3z"/>
	<g>
		<g>
			<path class="st7" d="M35.5,46.5H22.7c-0.9,0-1.7-0.7-1.7-1.7v0c0-0.9,0.7-1.7,1.7-1.7h12.7c0.9,0,1.7,0.7,1.7,1.7v0
				C37.1,45.7,36.4,46.5,35.5,46.5z"/>
		</g>
	</g>
	<g>
		<g>
			<path class="st7" d="M35.5,39.3h-3.8c-0.9,0-1.7-0.7-1.7-1.7v0c0-0.9,0.7-1.7,1.7-1.7h3.8c0.9,0,1.7,0.7,1.7,1.7v0
				C37.1,38.5,36.4,39.3,35.5,39.3z"/>
		</g>
	</g>
	<g>
		<g>
			<circle class="st7" cx="24.5" cy="37.7" r="3.4"/>
		</g>
	</g>
	<path class="st6" d="M49.9,30.7h-5.7v-3.1l0,0l0,0v0h0l-5.7-5.8l-7-7.2l0,0v0H18.1c-2.4,0-4.4,2-4.4,4.4v15.2v15.4
		c0,0.7,0.2,1.4,0.5,2c0.7,1.4,2.2,2.3,3.9,2.3h5.8h6.7v4c0,2.2,1.8,4.1,4.1,4.1h15.4c2.2,0,4.1-1.8,4.1-4.1V34.8
		C54,32.6,52.1,30.7,49.9,30.7z M31.4,19.4l2.4,2.4l5,5.1l0.7,0.7h-0.7h-3.3h-4.1V19.4z M30.5,50.7h-6.7h-5.8
		c-0.6,0-1.1-0.5-1.1-1.1V34.2V19.1c0-0.6,0.5-1.1,1.1-1.1h10.1v13h7.4h3.3h1.7h0.4v2.8V40h0v3h0v2.9v3v0.7c0,0.6-0.5,1.1-1.1,1.1
		h-6.4H30.5z M51,58c0,0.6-0.5,1.1-1.1,1.1H34.6c-0.6,0-1.1-0.5-1.1-1.1v-4h2.6c0.2,0.5,0.7,0.8,1.3,0.8h9.5c0.8,0,1.5-0.7,1.5-1.5
		s-0.7-1.5-1.5-1.5h-3.2c0-0.1,0.1-0.1,0.1-0.2c0.3-0.6,0.5-1.3,0.5-2v-0.7h2.6c0.8,0,1.5-0.7,1.5-1.5s-0.7-1.5-1.5-1.5h-2.6V43h0
		h2.6c0.8,0,1.5-0.7,1.5-1.5c0-0.8-0.7-1.5-1.5-1.5h-2.6h0v-6.3h5.7c0.6,0,1.1,0.5,1.1,1.1V58z"/>
</g>
</svg>
