<?xml version="1.0" encoding="utf-8"?>
<!-- Generator: Adobe Illustrator 23.0.3, SVG Export Plug-In . SVG Version: 6.00 Build 0)  -->
<svg version="1.1" id="Layer_1" xmlns="http://www.w3.org/2000/svg" xmlns:xlink="http://www.w3.org/1999/xlink" x="0px" y="0px"
	 viewBox="0 0 100 100" style="enable-background:new 0 0 100 100;" xml:space="preserve">
<style type="text/css">
	.st0{fill:#3A4D95;}
	.st1{fill:#E2DCB5;}
	.st2{fill:#374D97;}
	.st3{fill:#FFFFFF;}
	.st4{fill:#3C4C98;}
	.st5{fill:#EA5552;}
	.st6{fill:#EB5452;}
</style>
<g>
	<g>
		<path class="st4" d="M61.6,11.6c0-3-1.5-4.4-4.4-4.5c-0.2,0-0.5,0-0.7,0H28.3c-7.8,0-15.5,0-23.3,0c-3.7,0-4.9,1.3-5,5
			c0,0.5,0,1.1,0,1.6c0,13.8,0,24.6,0,38.4c0,9.6,0,19.1,0,28.7c0,2.6,1.4,4,4,4.1c0.7,0,1.3,0,2.4,0c-1.9,1.4-3.1,2.7-2.5,4.8
			c0.5,1.8,1.7,2.8,3.5,2.9c2.7,0.1,5.4,0.1,8.1,0c1.8-0.1,3-1.1,3.5-2.9c0.4-1.6-0.1-3-1.4-4c-0.2-0.2-0.7-0.2-1-0.3
			c0.2-0.1,0.3-0.3,0.5-0.4h27.4c-2.1,1.8-2.7,3.2-2.1,5c0.7,1.9,2.1,2.7,4.6,2.7c1.6,0,3.3-0.1,4.9,0c2.2,0.1,4.3-0.1,5.4-2.4
			c1-2.3-0.1-3.9-2.1-5.4c0.5,0,0.8-0.1,1-0.1c4.4-0.1,5.3-0.9,5.3-5.3c0-5.5,0-11.1,0-16.6v0c0-2.1,0-4.1,0-6.2
			c-0.7,0-1.4,0.1-2.1,0.1c0.2-1.2,0.4-2.3,0.6-3.4c0.3-1.2,0.3-3.4-2.2-4.9c-0.5-0.3-1-0.6-1.4-0.8c-0.4-0.2-0.8-0.4-1.1-0.7
			c0.8-0.9,1.6-1.7,2.4-2.6c1.5-1.5,1.7-3.4,0.7-5.3c-0.5-0.8-0.9-1.7-1.3-2.6c1.3-0.3,2.5-0.7,3.8-1c0.2-0.1,0.5-0.1,0.7-0.2
			c0-4.6,0-8.9,0-13.3C61.6,18.9,61.6,15.4,61.6,11.6z M53.8,54.1h-46V38.2h46V54.1z M7.7,15.1h46.1v15H7.7V15.1z M53.8,77.3h-46V62
			h46V77.3z"/>
	</g>
	<g>
		<path class="st5" d="M42.6,42.7c-2.2,0-3.9,1.7-3.9,3.9c0,2.1,1.6,3.7,3.8,3.8c2.2,0,3.8-1.5,3.8-3.7
			C46.4,44.4,44.8,42.7,42.6,42.7z"/>
	</g>
	<g>
		<path class="st5" d="M42.5,73.4c2.3,0,3.9-1.5,3.9-3.8c0-2.2-1.7-3.9-3.9-3.8c-2.1,0.1-3.7,1.7-3.7,3.9
			C38.7,71.8,40.3,73.4,42.5,73.4z"/>
	</g>
	<g>
		<path class="st5" d="M42.5,26.5c2.1,0,3.9-1.8,3.9-3.9c0-2.1-1.6-3.7-3.8-3.8c-2.2,0-3.9,1.7-3.9,3.9
			C38.7,24.8,40.4,26.5,42.5,26.5z"/>
	</g>
	<g>
		<g>
			<path class="st5" d="M75,47.9c-0.7-0.6-1.4-1.2-2.1-1.8c-0.3-0.3-0.4-0.5-0.1-0.9c0.7-0.8,0.6-1.8,0.1-2.7
				c-0.5-0.9-1.2-1.1-2-1.1c-1.3,0-2.3,0.5-3.4,0.7c-0.7,0.1-0.9,0.5-0.7,1.1c0.6,2.1,1.2,4.2,1.7,6.4c0.2,0.7,0.5,0.8,1.1,0.6
				c1.6-0.5,1.3-0.3,1-1.7c-0.1-0.3-0.2-0.7-0.3-1c0-0.2-0.3-0.4,0-0.6c0.3-0.1,0.5-0.1,0.7,0.2c0.4,0.4,0.8,0.7,1.1,1.1
				c0.7,1,1.5,1.1,2.5,0.6C75.3,48.5,75.5,48.3,75,47.9z M70,45.1c-0.6-0.1-0.5-0.9-0.6-1.4c-0.2-0.6,0.4-0.4,0.6-0.5
				c0.8-0.1,1.1,0.3,1.1,0.9C71.1,44.8,70.5,45.2,70,45.1z"/>
		</g>
	</g>
	<g>
		<g>
			<path class="st5" d="M79.6,45.6c-0.3,0.1-0.6,0.1-0.9,0.2c-0.5,0.2-0.7,0-0.8-0.4c-0.2-0.6-0.2-1.1,0.6-1.1
				c0.3,0,0.6-0.2,0.9-0.2c0.6-0.1,0.6-0.4,0.5-0.9c-0.2-0.8-0.5-1.1-1.3-0.7c-0.3,0.1-0.6,0.1-0.9,0.2c-0.5,0.2-0.6,0-0.7-0.4
				c-0.1-0.4-0.1-0.7,0.4-0.9c0.5-0.1,1-0.3,1.5-0.4c0.6-0.1,0.5-0.6,0.4-0.9c-0.1-0.4-0.1-1-0.8-0.9c-1.3,0.3-2.5,0.7-3.8,1
				c-0.4,0.1-0.5,0.3-0.4,0.7c0.6,2.3,1.2,4.6,1.9,6.9c0.1,0.3,0.2,0.6,0.5,0.5c1.4-0.4,2.7-0.7,4.1-1.1c0.3-0.1,0.4-0.3,0.3-0.6
				C80.7,45.4,80.8,45.1,79.6,45.6z"/>
		</g>
	</g>
	<g>
		<g>
			<path class="st5" d="M85.9,43.9c-0.4,0.1-0.8,0.2-1.1,0.3c-0.3,0.1-0.4,0.1-0.6-0.3c-0.3-1-0.3-1.1,0.7-1.4
				c0.2-0.1,0.5-0.1,0.7-0.2c0.5-0.1,0.6-0.4,0.5-0.8c-0.2-1-0.3-1.1-1.4-0.8c-0.3,0.1-0.6,0.2-1.1,0.3c-0.5,0.2-0.3-0.4-0.5-0.7
				c-0.2-0.4,0-0.5,0.3-0.6c0.5-0.1,0.9-0.3,1.4-0.4c0.7-0.1,0.7-0.5,0.5-1c-0.1-0.6-0.3-1-1-0.8c-1.1,0.3-2.2,0.6-3.4,0.9
				c-0.5,0.1-0.7,0.4-0.5,0.9c0.6,2.2,1.2,4.5,1.8,6.7c0.1,0.5,0.3,0.6,0.8,0.5c1.2-0.3,2.4-0.6,3.5-0.9c0.3-0.1,0.5-0.2,0.5-0.5
				C87.3,44,86.8,43.6,85.9,43.9z"/>
		</g>
	</g>
	<g>
		<g>
			<path class="st5" d="M66.4,47.4c0,0.5-0.4,0.5-0.7,0.6c-1.6,0.5-1.6,0.5-1.2,2.2c0.3,1.2-0.1,1.7-1.4,1.7
				c-0.4,0.1-0.5-0.2-0.6-0.5c-0.3-1.2-0.7-2.5-1-3.7c-0.3-1-0.5-2-0.8-3c-0.1-0.5,0-0.8,0.5-0.9c0.1,0,0.2,0,0.3-0.1
				c1-0.2,2.1-0.5,3.1-0.8c0.7-0.2,0.8,0.2,0.9,0.7c0.2,0.5,0.2,0.9-0.4,1.1c-0.4,0.1-0.7,0.2-1.1,0.3c-0.7,0.1-0.8,0.4-0.6,1.1
				c0.2,0.5,0.3,0.8,0.9,0.5c0.2-0.1,0.5-0.1,0.7-0.2C65.9,46,66.4,46.4,66.4,47.4z"/>
		</g>
	</g>
	<g>
		<path class="st4" d="M79.9,70.5c-1.3,0-2.4-0.7-2.8-1l-1-0.7c-0.9-0.6-1.9-1.3-2.8-1.9c-0.9,0.6-1.8,1.2-2.7,1.8l-0.7,0.5
			c-1.3,0.9-2.6,1.1-3.8,0.8c-1.2-0.4-2.2-1.3-2.8-2.7c-0.6-1.4-1.2-2.9-1.8-4.3c-1.3,0.1-2.7,0.1-4,0.1c-0.7,0-2.5,0.1-3.7-1.4
			c-1.2-1.4-1-3.2-0.9-3.9l0-0.2c0.2-1.4,0.5-2.9,0.7-4.3c-0.1-0.1-0.2-0.1-0.4-0.2c-1.4-0.8-2.9-1.6-4.3-2.7
			c-0.8-0.6-1.2-1.5-1.2-2.4v-0.7c0-0.8,0.3-1.5,0.8-2.1l1.2-1.4c0.8-0.9,1.6-1.8,2.5-2.7c-0.4-0.8-0.8-1.7-1.3-2.5l-0.5-1.1
			c-0.7-1.4-0.8-2.8-0.3-3.9c0.5-1.2,1.6-2,3.1-2.4l1.3-0.4c1-0.3,2.1-0.6,3.1-0.8c0.1-1.2,0.3-2.6,0.4-4.1c0.2-1.5,0.8-2.7,1.9-3.4
			c1.1-0.7,2.4-0.8,3.9-0.3l1.1,0.4c1.1,0.3,2.2,0.7,3.3,1.1c0.7-0.9,1.4-1.7,2.1-2.5l0.5-0.6c0.4-0.5,1.6-1.9,3.5-1.9c0,0,0,0,0,0
			c1.9,0,3.1,1.4,3.5,1.9l0.8,0.9c0.7,0.9,1.4,1.7,2.1,2.6c1.4-0.5,2.8-0.9,4.1-1.4c1.6-0.5,2.7-0.1,3.4,0.3c0.7,0.4,1.6,1.2,2,2.8
			c0.1,0.4,0.1,0.9,0.2,1.3l0.1,1c0.1,1,0.2,2,0.3,3c1.1,0.3,2.1,0.5,3.1,0.8l0.9,0.2c0.6,0.2,2.3,0.6,3.1,2.4
			c0.8,1.7,0,3.3-0.2,3.8L97.7,39c-0.6,1.2-1.2,2.5-1.8,3.7c0.7,0.8,1.5,1.6,2.2,2.4l1.2,1.3c0.5,0.6,0.8,1.3,0.8,2.1V49
			c0,0.6-0.2,1.2-0.5,1.7c-0.5,0.8-1.1,1.4-2,1.9c-0.8,0.5-1.5,0.9-2.3,1.4c-0.5,0.3-1,0.6-1.5,0.9c0.2,0.9,0.3,1.8,0.5,2.8l0.2,1.1
			c0.3,1.6,0,2.9-0.9,3.9c-0.9,1-2.1,1.5-3.8,1.4l-1.6,0c-0.9,0-1.9,0-2.8-0.1c-0.3,0.8-0.6,1.6-1,2.3l-0.5,1.3
			c-0.2,0.6-1,2.3-2.8,2.8C80.6,70.5,80.2,70.5,79.9,70.5z M73.3,60.3c0.8,0,1.7,0.3,2.5,0.8c1,0.7,2.1,1.4,3.1,2.1
			c0.4-1,0.8-1.9,1.2-2.9c0.7-1.8,2.2-2.8,4.2-2.7c1.3,0.1,2.5,0.1,3.8,0.1c-0.2-1.1-0.4-2.2-0.6-3.2c-0.4-1.8,0.3-3.4,1.9-4.3
			c0.9-0.5,1.9-1.1,2.8-1.7c0.2-0.1,0.4-0.2,0.6-0.3c-0.7-0.8-1.4-1.6-2.1-2.3c-1.4-1.4-1.6-3.2-0.7-5c0.6-1.1,1.1-2.2,1.6-3.3
			c-1-0.3-2-0.5-3-0.8c-1.9-0.4-3.1-1.8-3.3-3.7c-0.1-1.3-0.3-2.5-0.4-3.8c-1,0.3-2,0.7-3,1c-1.8,0.7-3.6,0.2-4.8-1.4
			c-0.8-1-1.6-1.9-2.3-2.9c-0.7,0.8-1.4,1.7-2,2.5c-1.2,1.5-2.8,2-4.7,1.4c-1.2-0.4-2.4-0.8-3.6-1.2c-0.1,1.2-0.2,2.2-0.3,3.2
			c-0.2,1.9-1.3,3.2-3.1,3.6c-1.3,0.3-2.5,0.6-3.8,1c0.4,0.9,0.9,1.7,1.3,2.6c1,1.9,0.8,3.8-0.7,5.3c-0.8,0.8-1.6,1.7-2.4,2.6
			c0.4,0.2,0.7,0.4,1.1,0.7c0.5,0.3,1,0.5,1.4,0.8c2.5,1.5,2.4,3.7,2.2,4.9c-0.2,1.1-0.4,2.2-0.6,3.4c1.1,0,2.2-0.1,3.3-0.1
			c1.9-0.1,3.3,0.8,4,2.6c0.5,1.2,1,2.4,1.5,3.6c0.9-0.6,1.7-1.2,2.6-1.8C71.6,60.6,72.4,60.3,73.3,60.3z M54,52.2l3,0.7L54,52.2
			C54,52.2,54,52.2,54,52.2L54,52.2z M91.2,32.6C91.2,32.6,91.2,32.6,91.2,32.6C91.2,32.6,91.2,32.6,91.2,32.6z M57.8,31.6
			C57.8,31.6,57.8,31.6,57.8,31.6C57.8,31.6,57.8,31.6,57.8,31.6z M67.7,24.9C67.7,24.9,67.7,24.9,67.7,24.9
			C67.7,24.9,67.7,24.9,67.7,24.9z"/>
	</g>
</g>
</svg>
