<svg xmlns="http://www.w3.org/2000/svg" xmlns:xlink="http://www.w3.org/1999/xlink" width="60" height="60" viewBox="0 0 60 60">
  <defs>
    <filter id="Path_1967" x="-2" y="11" width="63.564" height="39.238" filterUnits="userSpaceOnUse">
      <feOffset dy="1" input="SourceAlpha"/>
      <feGaussianBlur stdDeviation="0.5" result="blur"/>
      <feFlood flood-opacity="0.161"/>
      <feComposite operator="in" in2="blur"/>
      <feComposite in="SourceGraphic"/>
    </filter>
    <clipPath id="clip-psd_to_woocommerce">
      <rect width="60" height="60"/>
    </clipPath>
  </defs>
  <g id="psd_to_woocommerce" data-name="psd to woocommerce" clip-path="url(#clip-psd_to_woocommerce)">
    <rect width="60" height="60" fill="#fff"/>
    <g transform="matrix(1, 0, 0, 1, 0, 0)" filter="url(#Path_1967)">
      <path id="Path_1967-2" data-name="Path 1967" d="M747.564-438.682v21.145a1.166,1.166,0,0,0-.167.227c-1.164,2.8-2.86,3.931-5.9,3.931-5.327,0-10.653.009-15.98-.011-.647,0-.836.1-.543.76.611,1.38,1.162,2.788,1.721,4.191.094.236.315.463.159.758l0-.02c-3.193-1.757-6.391-3.506-9.574-5.282a3.024,3.024,0,0,0-1.546-.4q-10.907.019-21.814.007a5.564,5.564,0,0,1-5.719-4.086c-.046-.135-.038-.3-.207-.369v-.447a.336.336,0,0,0,0-.447v-18.912a.461.461,0,0,0,0-.6v-.3c.228-.132.188-.388.256-.587a5.579,5.579,0,0,1,3.342-3.526c.29-.116.635-.1.87-.354H743.1c.534.222,1.084.412,1.6.671A5.944,5.944,0,0,1,747.564-438.682Zm-2.936,10.717a3.346,3.346,0,0,0,0-2.82c-.073-.339-.135-.68-.22-1.015a6.443,6.443,0,0,0-3.636-4.781,6.047,6.047,0,0,0-7.466,2.113,12.407,12.407,0,0,0-2.384,9.971c.428,2.445,1.606,4.436,4.134,5.28,2.849.95,5.519-.065,7.347-2.739A13.961,13.961,0,0,0,744.628-427.965Zm-15.1-1.922a.253.253,0,0,0-.011-.324l-.023-.248-.025-.171a14.955,14.955,0,0,0-.649-2.513,6.03,6.03,0,0,0-9.736-2.362,12.409,12.409,0,0,0-2.8,12.8,6,6,0,0,0,10.089,1.822,11.17,11.17,0,0,0,1.675-2.449,15.034,15.034,0,0,0,1.454-4.889.607.607,0,0,0,.03-.793Q729.526-429.449,729.525-429.887ZM703.793-427.3c.111.12.137.135.143.156.108.33.212.661.32.991a24.477,24.477,0,0,0,4.192,8.156,7.168,7.168,0,0,0,1.249,1.271,1.767,1.767,0,0,0,2.993-1.283,5.742,5.742,0,0,0,.02-.743c.014-6.216.631-12.327,3.114-18.12A1.994,1.994,0,0,0,714.8-439.5a1.961,1.961,0,0,0-2.642.783,13.413,13.413,0,0,0-.774,1.607,36.827,36.827,0,0,0-2.089,8.579c-.14.935-.254,1.873-.381,2.81a1.642,1.642,0,0,1-.409-.677,49.758,49.758,0,0,1-1.593-5.653,14.137,14.137,0,0,0-.58-2.457,1.7,1.7,0,0,0-2.908-.556,4.581,4.581,0,0,0-.786,1.168q-2.336,4.447-4.677,8.89c-.119.225-.161.519-.455.655a2.28,2.28,0,0,1-.287-.913c-.92-3.863-1.573-7.776-2.184-11.7a1.816,1.816,0,0,0-2.37-1.7,1.949,1.949,0,0,0-1.64,2.345,152.688,152.688,0,0,0,2.938,15.035,18.881,18.881,0,0,0,1.314,3.866c.689,1.356,1.611,1.5,2.721.443a9.55,9.55,0,0,0,1.607-2.134c.946-1.6,1.7-3.308,2.545-4.964C702.69-425.124,703.225-426.18,703.793-427.3Z" transform="translate(-688 455)" fill="#a5689a" stroke="rgba(0,0,0,0)" stroke-width="1"/>
    </g>
  </g>
</svg>
