<?xml version="1.0" encoding="utf-8"?>
<!-- Generator: Adobe Illustrator 23.0.3, SVG Export Plug-In . SVG Version: 6.00 Build 0)  -->
<svg version="1.1" id="Layer_1" xmlns="http://www.w3.org/2000/svg" xmlns:xlink="http://www.w3.org/1999/xlink" x="0px" y="0px"
	 viewBox="0 0 100 100" style="enable-background:new 0 0 100 100;" xml:space="preserve">
<style type="text/css">
	.st0{fill:#3A4D95;}
	.st1{fill:#E2DCB5;}
	.st2{fill:none;stroke:#FFFFFF;stroke-width:2.2297;stroke-linecap:round;stroke-linejoin:round;stroke-miterlimit:10;}
	.st3{fill:none;stroke:#FFFFFF;stroke-width:2.6029;stroke-linecap:round;stroke-linejoin:round;stroke-miterlimit:10;}
	.st4{fill:none;stroke:#FFFFFF;stroke-width:1.7652;stroke-linecap:round;stroke-linejoin:round;stroke-miterlimit:10;}
	.st5{fill:#FFFFFF;}
	.st6{fill:#3C4C98;}
	.st7{fill:#EA5552;}
	.st8{fill:#E9F2FA;}
	.st9{fill:none;stroke:#020202;stroke-width:2;stroke-linecap:round;stroke-linejoin:round;stroke-miterlimit:10;}
	.st10{fill:#EEF0F9;}
</style>
<g>
	<g>
		<g>
			<path class="st7" d="M35.2,44.7H15.3c-1.1,0-2-0.9-2-2s0.9-2,2-2h19.9c1.1,0,2,0.9,2,2S36.3,44.7,35.2,44.7z"/>
		</g>
	</g>
	<g>
		<g>
			<path class="st7" d="M35.2,82.5H15.3c-1.1,0-2-0.9-2-2s0.9-2,2-2h19.9c1.1,0,2,0.9,2,2S36.3,82.5,35.2,82.5z"/>
		</g>
	</g>
	<g>
		<g>
			<path class="st6" d="M76.2,4.7c-12.9,0-23.4,10.3-23.8,23.1H14.9c-4,0-7.7,1.5-10.5,4.4C1.5,34.9,0,38.6,0,42.6
				c0,8.2,6.7,14.9,14.9,14.9h41c4,0,7.7-1.5,10.5-4.4c0.7-0.7,1.3-1.4,1.8-2.2c2.6,0.9,5.3,1.4,8,1.4c13.1,0,23.8-10.7,23.8-23.8
				S89.3,4.7,76.2,4.7z M61.2,47.9c-1.4,1.4-3.3,2.2-5.3,2.2h-41c-4.1,0-7.5-3.4-7.5-7.5c0-2,0.8-3.9,2.2-5.3
				c1.4-1.4,3.3-2.2,5.3-2.2h38.5c1.4,4.8,4.3,9.1,8.3,12.2C61.5,47.5,61.3,47.7,61.2,47.9z M76.2,44.9c-2.8,0-5.5-0.7-7.9-2
				c0,0,0,0,0,0c-4.5-2.5-7.6-6.9-8.3-11.9c0,0,0,0,0,0c0,0,0,0,0,0c-0.1-0.8-0.2-1.6-0.2-2.4c0-9,7.4-16.4,16.4-16.4
				c9,0,16.4,7.4,16.4,16.4S85.2,44.9,76.2,44.9z"/>
		</g>
		<g>
			<path class="st6" d="M55.9,65.6h-41C6.7,65.6,0,72.3,0,80.5s6.7,14.9,14.9,14.9h41c8.2,0,14.9-6.7,14.9-14.9S64.1,65.6,55.9,65.6
				z M55.9,87.9h-41c-4.1,0-7.5-3.4-7.5-7.5s3.4-7.5,7.5-7.5h41c4.1,0,7.5,3.4,7.5,7.5S60,87.9,55.9,87.9z"/>
		</g>
	</g>
	<g>
		<g>
			<path class="st7" d="M85,29.1c-0.7-1.2-2.3-1.6-3.5-0.9l-2.7,1.6v-7.1c0-1.4-1.1-2.6-2.6-2.6s-2.6,1.1-2.6,2.6v7.1l-2.7-1.6
				c-1.2-0.7-2.8-0.3-3.5,0.9c-0.7,1.2-0.3,2.8,0.9,3.5l6.5,3.8c0.4,0.2,0.8,0.4,1.3,0.4c0,0,0,0,0,0c0,0,0,0,0,0
				c0.4,0,0.9-0.1,1.3-0.3c0,0,0,0,0,0l6.5-3.8C85.3,31.9,85.7,30.4,85,29.1z"/>
		</g>
	</g>
</g>
</svg>
