<?xml version="1.0" encoding="utf-8"?>
<!-- Generator: Adobe Illustrator 23.0.3, SVG Export Plug-In . SVG Version: 6.00 Build 0)  -->
<svg version="1.1" id="Layer_1" xmlns="http://www.w3.org/2000/svg" xmlns:xlink="http://www.w3.org/1999/xlink" x="0px" y="0px"
	 viewBox="0 0 100 100" style="enable-background:new 0 0 100 100;" xml:space="preserve">
<style type="text/css">
	.st0{fill:#3A4D95;}
	.st1{fill:#E2DCB5;}
	.st2{fill:none;stroke:#FFFFFF;stroke-width:2.2297;stroke-linecap:round;stroke-linejoin:round;stroke-miterlimit:10;}
	.st3{fill:none;stroke:#FFFFFF;stroke-width:2.6029;stroke-linecap:round;stroke-linejoin:round;stroke-miterlimit:10;}
	.st4{fill:none;stroke:#FFFFFF;stroke-width:1.7652;stroke-linecap:round;stroke-linejoin:round;stroke-miterlimit:10;}
	.st5{fill:#FFFFFF;}
	.st6{fill:#3C4C98;}
	.st7{fill:#EA5552;}
	.st8{fill:#E9F2FA;}
	.st9{fill:none;stroke:#020202;stroke-width:2;stroke-linecap:round;stroke-linejoin:round;stroke-miterlimit:10;}
	.st10{fill:#EEF0F9;}
</style>
<g>
	<g>
		<g>
			<path class="st6" d="M75.9,51.4c-13.3,0-24.1-10.8-24.1-24.1S62.6,3.2,75.9,3.2S100,14,100,27.3S89.2,51.4,75.9,51.4z M75.9,10.6
				c-9.2,0-16.6,7.4-16.6,16.6s7.5,16.6,16.6,16.6s16.6-7.4,16.6-16.6S85.1,10.6,75.9,10.6z"/>
		</g>
	</g>
	<g>
		<g>
			<path class="st6" d="M100,27.3C100,14,89.2,3.2,75.9,3.2c-12.6,0-22.9,9.7-24,22H11c-6,0-11,4.9-11,11v38c0,6,4.9,11,11,11H73
				c6,0,11-4.9,11-11V50C93.3,46.6,100,37.7,100,27.3z M76.5,74.1c0,1.9-1.6,3.5-3.5,3.5H11c-1.9,0-3.5-1.6-3.5-3.5v-38
				c0-1.9,1.6-3.5,3.5-3.5h41.5c2.5,10.7,12.1,18.7,23.5,18.7c0.2,0,0.4,0,0.6,0V74.1z M75.9,43.9c-9.2,0-16.6-7.4-16.6-16.6
				s7.5-16.6,16.6-16.6s16.6,7.4,16.6,16.6S85.1,43.9,75.9,43.9z"/>
		</g>
	</g>
	<g>
		<g>
			<path class="st7" d="M39.2,47.9H19.1c-2.1,0-3.7-1.7-3.7-3.7s1.7-3.7,3.7-3.7h20.1c2.1,0,3.7,1.7,3.7,3.7S41.3,47.9,39.2,47.9z"
				/>
		</g>
	</g>
	<g>
		<g>
			<path class="st7" d="M57,96.8H27c-2.1,0-3.7-1.7-3.7-3.7c0-2.1,1.7-3.7,3.7-3.7h30c2.1,0,3.7,1.7,3.7,3.7
				C60.7,95.2,59,96.8,57,96.8z"/>
		</g>
	</g>
	<g>
		<g>
			<polygon class="st7" points="84,31.8 75.8,36.9 67.9,31.8 67.9,18.7 84,18.7 			"/>
		</g>
	</g>
</g>
</svg>
