<?xml version="1.0" encoding="utf-8"?>
<!-- Generator: Adobe Illustrator 23.0.3, SVG Export Plug-In . SVG Version: 6.00 Build 0)  -->
<svg version="1.1" id="Layer_1" xmlns="http://www.w3.org/2000/svg" xmlns:xlink="http://www.w3.org/1999/xlink" x="0px" y="0px"
	 viewBox="0 0 100 100" style="enable-background:new 0 0 100 100;" xml:space="preserve">
<style type="text/css">
	.st0{fill:#3A4D95;}
	.st1{fill:#E2DCB5;}
	.st2{fill:none;stroke:#FFFFFF;stroke-width:2.2297;stroke-linecap:round;stroke-linejoin:round;stroke-miterlimit:10;}
	.st3{fill:none;stroke:#FFFFFF;stroke-width:2.6029;stroke-linecap:round;stroke-linejoin:round;stroke-miterlimit:10;}
	.st4{fill:none;stroke:#FFFFFF;stroke-width:1.7652;stroke-linecap:round;stroke-linejoin:round;stroke-miterlimit:10;}
	.st5{fill:#FFFFFF;}
	.st6{fill:#3C4C98;}
	.st7{fill:#EA5552;}
	.st8{fill:#E9F2FA;}
	.st9{fill:none;stroke:#020202;stroke-width:2;stroke-linecap:round;stroke-linejoin:round;stroke-miterlimit:10;}
	.st10{fill:#EEF0F9;}
</style>
<g>
	<g>
		<g>
			<path class="st6" d="M78.3,42.5c-9.5,0-17.6,6.2-20.5,14.8c-2.2-1.4-4.6-2.6-7-3.5c7-4.4,11.7-12.3,11.7-21.2
				c0-13.8-11.2-25-25-25s-25,11.2-25,25c0,8.9,4.7,16.7,11.7,21.2C10.1,59.1,0,72.8,0,88.9c0,2,1.6,3.6,3.6,3.6h67.9
				c2,0,3.6-1.6,3.6-3.6c0-1.1-0.1-2.2-0.2-3.3c1.1,0.2,2.3,0.3,3.4,0.3c11.9,0,21.7-9.7,21.7-21.7S90.3,42.5,78.3,42.5z M19.7,32.6
				c0-9.8,8-17.9,17.9-17.9c9.8,0,17.9,8,17.9,17.9c0,9.8-8,17.9-17.9,17.9C27.7,50.4,19.7,42.4,19.7,32.6z M67.7,85.3H7.4
				C9.1,70.2,22,58.5,37.5,58.5c7,0,13.8,2.4,19.2,6.8c0.4,7.5,4.6,13.9,10.6,17.5C67.5,83.6,67.6,84.4,67.7,85.3z M78.3,79.1
				c-8.2,0-14.9-6.7-14.9-14.9s6.7-14.9,14.9-14.9c8.2,0,14.9,6.7,14.9,14.9S86.6,79.1,78.3,79.1z"/>
		</g>
	</g>
	<g>
		<g>
			<path class="st7" d="M74.3,72.9c-1,0-1.9-0.4-2.6-1.3l-3.8-4.9c-1.1-1.4-0.9-3.5,0.6-4.6c1.4-1.1,3.5-0.8,4.6,0.6l1.8,2.3
				l8.8-6.8c1.4-1.1,3.5-0.8,4.6,0.6c1.1,1.4,0.8,3.5-0.6,4.6l-11.4,8.7C75.7,72.7,75,72.9,74.3,72.9z"/>
		</g>
	</g>
</g>
</svg>
