<svg xmlns="http://www.w3.org/2000/svg" width="69.152" height="56" viewBox="0 0 69.152 56">
  <g id="Group_327" data-name="Group 327" transform="translate(-1379.125 -1722.596)">
    <rect id="Rectangle_20804" data-name="Rectangle 20804" width="69" height="56" transform="translate(1379.125 1722.596)" fill="#EA5351" opacity="0"/>
    <path id="Path_2012" data-name="Path 2012" d="M1417.642,1760.858a8.43,8.43,0,1,0-13.657,0,11.22,11.22,0,0,0-4.463,9,2.081,2.081,0,0,0,2.08,2.08h18.422a2.08,2.08,0,0,0,2.08-2.08A11.22,11.22,0,0,0,1417.642,1760.858Zm-13.654,6.92a7.092,7.092,0,0,1,4.216-4.555,2.08,2.08,0,0,0,.345-3.7,4.269,4.269,0,1,1,4.53,0,2.081,2.081,0,0,0,.344,3.7,7.089,7.089,0,0,1,4.216,4.555Z" transform="translate(-8.061 -10.278)" fill="#EA5351"/>
    <path id="Path_2013" data-name="Path 2013" d="M1440.88,1743.2a7.408,7.408,0,0,0-7.087,5.286h-8.342a22.714,22.714,0,0,0-9.445-16.379h6.131a7.4,7.4,0,1,0,0-4.224h-19.3l-.045,0a22.713,22.713,0,0,0,0,45.426l.045,0h19.3a7.4,7.4,0,1,0,0-4.224h-6.131a22.715,22.715,0,0,0,9.445-16.379h8.342a7.4,7.4,0,1,0,7.087-9.51Zm-11.656-16.378a3.174,3.174,0,1,1-3.174,3.174A3.177,3.177,0,0,1,1429.223,1726.82Zm0,41.2a3.174,3.174,0,1,1-3.174,3.174A3.177,3.177,0,0,1,1429.223,1768.024Zm-26.385,1.062a18.49,18.49,0,1,1,18.49-18.49A18.51,18.51,0,0,1,1402.839,1769.086Zm38.041-15.316a3.174,3.174,0,1,1,3.174-3.174A3.177,3.177,0,0,1,1440.88,1753.77Z" transform="translate(0)" fill="#3C4C96"/>
  </g>
</svg>
